Division,WeightClassKg,Place,Name,Team,BodyweightKg,Best3SquatKg,Best3BenchKg,Best3DeadliftKg,TotalKg,Equipment,Event,Sex
Boys,51.71,1,Kelly Tindall,Abilene Cooper,50.89,129.27,79.38,151.95,360.61,Single-ply,SBD,M
Boys,55.79,2,Clarence Smith,Abilene Cooper,51.8,122.47,79.38,151.95,353.8,Single-ply,SBD,M
Boys,51.71,3,Shimar Jennings,Plainview,48.99,136.08,79.38,136.08,351.53,Single-ply,SBD,M
Boys,51.71,4,Jesse Ramirez #2,San Angelo Lake View,51.35,129.27,77.11,142.88,349.27,Single-ply,SBD,M
Boys,51.71,5,Taskin Amin,Midland Lee,50.8,129.27,72.57,145.15,347,Single-ply,SBD,M
Boys,51.71,6,Joseph Campos,Midland,50.53,115.67,49.9,120.2,285.76,Single-ply,SBD,M
Boys,51.71,7,Ivan Antuna,Plainview,45.09,106.59,52.16,104.33,263.08,Single-ply,SBD,M
Boys,51.71,8,Matthew Hernandez,San Angelo Lake View,48.35,81.65,52.16,97.52,231.33,Single-ply,SBD,M
Boys,51.71,9,Michael Ramirez,San Angelo Lake View,50.44,83.91,43.09,99.79,226.8,Single-ply,SBD,M
Boys,55.79,1,Jaime Salgado,Plainview,53.8,219.99,90.72,192.78,503.49,Single-ply,SBD,M
Boys,55.79,2,Evan Valenzuela,Midland,55.52,161.03,86.18,163.29,410.5,Single-ply,SBD,M
Boys,55.79,3,Brian Gomez,Lubbock Monterey,55.79,111.13,79.38,133.81,324.32,Single-ply,SBD,M
Boys,59.87,4,Tyler Pacheco,San Angelo Lake View,55.97,129.27,65.77,129.27,324.32,Single-ply,SBD,M
Boys,55.79,5,Terrence Sims,Abilene Cooper,55.7,117.93,79.38,117.93,315.25,Single-ply,SBD,M
Boys,55.79,6,Johnny Gonzales,Lubbock Monterey,54.98,113.4,72.57,122.47,308.44,Single-ply,SBD,M
Boys,55.79,7,Joey Rios,Dumas,55.43,102.06,54.43,113.4,269.89,Single-ply,SBD,M
Boys,55.79,8,Ryan Bybee,Dumas,54.61,90.72,54.43,122.47,267.62,Single-ply,SBD,M
Boys,55.79,9,Elijah Saldana,Lubbock Monterey,54.52,136.08,,,136.08,Single-ply,S,M
Boys,55.79,DQ,Jordan Uriegas,San Angelo Lake View,55.79,,,,,Single-ply,S,M
Boys,67.13,1,Jose Pineda,San Angelo Central,60.06,183.7,95.25,176.9,455.86,Single-ply,SBD,M
Boys,59.87,2,Miles Ochsner,Midland Lee,58.06,174.63,95.25,176.9,446.79,Single-ply,SBD,M
Boys,59.87,3,Kendrick Powdrill,Abilene Cooper,57.52,149.69,83.91,192.78,426.38,Single-ply,SBD,M
Boys,59.87,4,Albert Servin,Lubbock Monterey,57.33,147.42,97.52,179.17,424.11,Single-ply,SBD,M
Boys,59.87,5,Sammy Beall,Abilene Cooper,58.42,163.29,104.33,151.95,419.57,Single-ply,SBD,M
Boys,59.87,6,Zach Hernandez,Big Spring,59.33,163.29,79.38,156.49,399.16,Single-ply,SBD,M
Boys,59.87,7,Dimas Rodriguez,Plainview,58.88,147.42,90.72,136.08,374.21,Single-ply,SBD,M
Boys,67.13,8,Kerry Sims,Abilene Cooper,60.1,142.88,77.11,151.95,371.95,Single-ply,SBD,M
Boys,59.87,9,John Hernandez,San Angelo Lake View,59.33,124.74,79.38,156.49,360.61,Single-ply,SBD,M
Boys,59.87,10,Brady Pitzer,Canyon Randall,59.6,117.93,79.38,124.74,322.05,Single-ply,SBD,M
Boys,67.13,11,Jake Hernandez,Big Spring,60.06,170.1,104.33,,274.42,Single-ply,SB,M
Boys,59.87,DQ,Ben Merworth,Big Spring,59.33,,,,,Single-ply,SB,M
Boys,59.87,DQ,Victor Muro,San Angelo Lake View,58.33,120.2,83.91,149.69,,Single-ply,SBD,M
Boys,59.87,DQ,Julio Dominguez,San Angelo Lake View,59.33,108.86,68.04,156.49,,Single-ply,SBD,M
Boys,67.13,DQ,Juan Ramirez,San Angelo Lake View,60.06,117.93,77.11,147.42,,Single-ply,SBD,M
Boys,67.13,1,Jazper Solis,Abilene,65.59,204.12,108.86,190.51,503.49,Single-ply,SBD,M
Boys,67.13,2,Ryan Baca,Canyon,66.13,176.9,124.74,190.51,492.15,Single-ply,SBD,M
Boys,67.13,3,Aaron Khaleeq,Plainview,66.86,192.78,113.4,185.97,492.15,Single-ply,SBD,M
Boys,67.13,4,Alex Garcia #3,Odessa,66.04,206.38,97.52,183.7,487.61,Single-ply,SBD,M
Boys,74.84,5,Gabrial Diaz,Abilene Cooper,67.31,190.51,106.59,188.24,485.34,Single-ply,SBD,M
Boys,74.84,6,Santiago Navajas,Abilene Cooper,67.36,174.63,124.74,170.1,469.47,Single-ply,SBD,M
Boys,67.13,7,JD Smith,San Angelo Lake View,66.95,174.63,70.31,204.12,449.06,Single-ply,SBD,M
Boys,74.84,8,Tj Bruns,Abilene Cooper,67.22,188.24,104.33,147.42,439.98,Single-ply,SBD,M
Boys,67.13,9,Josh Foster,Midland Lee,64.41,158.76,79.38,190.51,428.64,Single-ply,SBD,M
Boys,67.13,10,Ryan Campos,Abilene,64.95,165.56,,,165.56,Single-ply,S,M
Boys,67.13,DQ,Hunter Self,Abilene,65.5,158.76,90.72,170.1,,Single-ply,SBD,M
Boys,74.84,DQ,Cesar Chavez,Midland,67.22,165.56,79.38,185.97,,Single-ply,SBD,M
Boys,67.13,DQ,Shane Trogden,Odessa Permian,66.22,142.88,92.99,158.76,,Single-ply,SBD,M
Boys,74.84,DQ,Devonte Carson,San Angelo Lake View,67.36,136.08,81.65,172.37,,Single-ply,SBD,M
Boys,67.13,DQ,Jonathan Robinson,San Angelo Lake View,66.13,136.08,92.99,163.29,,Single-ply,SBD,M
Boys,74.84,1,Justin Pichardo,Plainview,73.75,215.46,117.93,213.19,546.58,Single-ply,SBD,M
Boys,74.84,2,Mark Kollar,Midland Lee,73.94,195.04,120.2,215.46,530.7,Single-ply,SBD,M
Boys,74.84,3,Alan Rivera,Plainview,72.21,204.12,113.4,204.12,521.63,Single-ply,SBD,M
Boys,74.84,4,Blaze Wooten,Midland,73.84,190.51,108.86,183.7,483.08,Single-ply,SBD,M
Boys,74.84,5,Britton Hale,Abilene Cooper,74.84,181.44,113.4,176.9,471.74,Single-ply,SBD,M
Boys,74.84,6,Thomas Walker,Lubbock Monterey,69.85,176.9,102.06,190.51,469.47,Single-ply,SBD,M
Boys,74.84,7,Ozzy Zuniga,Odessa Permian,73.75,179.17,99.79,176.9,455.86,Single-ply,SBD,M
Boys,74.84,8,Nick Serna,Dumas,71.4,154.22,108.86,181.44,444.52,Single-ply,SBD,M
Boys,74.84,9,Josh Tarin,Odessa Permian,73.94,158.76,104.33,181.44,444.52,Single-ply,SBD,M
Boys,74.84,10,John Flores,Big Spring,71.94,174.63,102.06,,276.69,Single-ply,SB,M
Boys,74.84,DQ,Jesus Ramirez,Midland,74.57,174.63,106.59,170.1,,Single-ply,SBD,M
Boys,74.84,DQ,Paxton Grayer,Abilene,72.39,167.83,90.72,174.63,,Single-ply,SBD,M
Boys,82.1,1,Efrain Vasquez,Midland,81.47,222.26,122.47,226.8,571.53,Single-ply,SBD,M
Boys,89.81,2,Alford Cooper,Abilene Cooper,82.33,217.72,115.67,219.99,553.38,Single-ply,SBD,M
Boys,82.1,3,Josh Reyes,Odessa,79.47,206.38,120.2,199.58,526.17,Single-ply,SBD,M
Boys,82.1,4,Taylor Bailey,Abilene Cooper,79.83,195.04,127.01,188.24,510.29,Single-ply,SBD,M
Boys,82.1,5,Anthony Garcia,Big Spring,76.84,190.51,133.81,172.37,496.68,Single-ply,SBD,M
Boys,82.1,6,Jansen Riddell,Canyon Randall,80.29,181.44,113.4,201.85,496.68,Single-ply,SBD,M
Boys,82.1,7,Michael Felton,Big Spring,81.83,192.78,120.2,183.7,496.68,Single-ply,SBD,M
Boys,82.1,8,Pierce Browder,Canyon Randall,77.75,174.63,117.93,181.44,474,Single-ply,SBD,M
Boys,82.1,9,Conrad Duran,San Angelo Lake View,81.1,181.44,115.67,,297.1,Single-ply,SB,M
Boys,82.1,10,Tanner Arnold,Dumas,80.65,181.44,102.06,,283.5,Single-ply,SB,M
Boys,82.1,DQ,Luis Juarez,Midland,78.38,183.7,92.99,192.78,,Single-ply,SBD,M
Boys,82.1,DQ,Isaac Moran,Dumas,78.74,,,,,Single-ply,SB,M
Boys,82.1,DQ,Jacob Cobos,Odessa Permian,79.11,192.78,86.18,185.97,,Single-ply,SBD,M
Boys,89.81,1,Josh Jones #6,Abilene,85.82,265.35,147.42,217.72,630.49,Single-ply,SBD,M
Boys,99.79,2,Abner Godoy,Midland,90.04,224.53,140.61,235.87,601.01,Single-ply,SBD,M
Boys,99.79,3,Quincy Moore,Abilene Cooper,89.99,215.46,149.69,217.72,582.87,Single-ply,SBD,M
Boys,89.81,4,Marquise Clater,Midland,85.91,219.99,111.13,210.92,542.04,Single-ply,SBD,M
Boys,99.79,5,Rodney Johnson,Odessa Permian,89.9,201.85,120.2,204.12,526.17,Single-ply,SBD,M
Boys,89.81,6,Jacob Borrego,Abilene Cooper,86.18,195.04,117.93,197.31,510.29,Single-ply,SBD,M
Boys,89.81,7,Austin Martinez,Abilene Cooper,88.09,181.44,113.4,208.65,503.49,Single-ply,SBD,M
Boys,89.81,8,Nic Garcia,Abilene Cooper,84.01,181.44,127.01,192.78,501.22,Single-ply,SBD,M
Boys,89.81,9,Aaron Allen #2,San Angelo Lake View,87.54,204.12,90.72,206.38,501.22,Single-ply,SBD,M
Boys,89.81,DQ,Mikel Shaffer,San Angelo Lake View,89.54,,,,,Single-ply,SBD,M
Boys,89.81,DQ,Steven Lugo,Abilene Cooper,88.27,172.37,111.13,192.78,,Single-ply,SBD,M
Boys,89.81,DQ,Jeret Smith,Abilene,88.09,,,,,Single-ply,SBD,M
Boys,89.81,DQ,Brady Odom,Abilene,88.27,183.7,83.91,199.58,,Single-ply,SBD,M
Boys,89.81,DQ,Jerod Daniel,Abilene,88.54,,,,,Single-ply,SBD,M
Boys,89.81,DQ,Jake Reeves,Canyon Randall,88.9,181.44,115.67,,,Single-ply,SBD,M
Boys,99.79,1,John Chappa,San Angelo Central,97.61,276.69,170.1,272.16,718.94,Single-ply,SBD,M
Boys,99.79,2,Jacob Hinojos,Plainview,94.71,299.37,142.88,272.16,714.41,Single-ply,SBD,M
Boys,99.79,3,Derrick Anderson,Big Spring,96.71,263.08,156.49,251.74,671.32,Single-ply,SBD,M
Boys,99.79,4,Shaquille Johnson,Odessa Permian,97.34,258.55,131.54,215.46,605.55,Single-ply,SBD,M
Boys,99.79,5,Ron Holmes,Odessa Permian,95.44,235.87,113.4,222.26,571.53,Single-ply,SBD,M
Boys,99.79,6,Austin Tucker,San Angelo Central,93.35,238.14,108.86,213.19,560.19,Single-ply,SBD,M
Boys,99.79,7,Frank Perez,Plainview,92.44,238.14,104.33,215.46,557.92,Single-ply,SBD,M
Boys,99.79,8,Hasten Wood,Odessa Permian,99.34,208.65,127.01,217.72,553.38,Single-ply,SBD,M
Boys,99.79,9,Marcus Agundis,San Angelo Lake View,96.52,217.72,108.86,222.26,548.85,Single-ply,SBD,M
Boys,109.77,10,Jamar Renfro,Abilene Cooper,100.02,204.12,,,204.12,Single-ply,S,M
Boys,99.79,DQ,Rudy Lopez,Midland Lee,92.99,208.65,111.13,222.26,,Single-ply,SBD,M
Boys,99.79,DQ,Zach Subealdea,Plainview,97.07,199.58,122.47,204.12,,Single-ply,SBD,M
Boys,99.79,DQ,Santiago Fabela,Plainview,92.99,204.12,,,,Single-ply,S,M
Boys,99.79,DQ,Trey Spangler,Odessa Permian,96.34,181.44,131.54,217.72,,Single-ply,SBD,M
Boys,109.77,1,Josh Robinson,Abilene Cooper,106.05,272.16,151.95,265.35,689.46,Single-ply,SBD,M
Boys,109.77,2,Henry Hoang,Midland,106.59,274.42,154.22,260.82,689.46,Single-ply,SBD,M
Boys,109.77,3,Josh Hamaty,Abilene,108.59,263.08,133.81,238.14,635.03,Single-ply,SBD,M
Boys,109.77,4,Robert Martinez,San Angelo Central,105.23,272.16,131.54,229.06,632.76,Single-ply,SBD,M
Boys,109.77,5,Damon Rose,Odessa Permian,105.69,217.72,138.35,233.6,589.67,Single-ply,SBD,M
Boys,109.77,6,Angelo Samarippa,Plainview,102.87,226.8,163.29,195.04,585.13,Single-ply,SBD,M
Boys,109.77,7,Joe Dillard,Abilene Cooper,108.14,219.99,145.15,217.72,582.87,Single-ply,SBD,M
Boys,109.77,8,Wesley Adams,Lubbock Monterey,102.6,226.8,129.27,217.72,573.79,Single-ply,SBD,M
Boys,109.77,9,Jesse Baeza,Odessa Permian,107.32,226.8,129.27,215.46,571.53,Single-ply,SBD,M
Boys,109.77,10,Marcos Hinojos,Plainview,108.95,226.8,122.47,195.04,544.31,Single-ply,SBD,M
Boys,109.77,DQ,Michael Motley,Midland Lee,106.68,210.92,117.93,235.87,,Single-ply,SBD,M
Boys,109.77,DQ,Robert Roman,San Angelo Lake View,100.24,,,,,Single-ply,SBD,M
Boys,109.77,DQ,Jose Escamilla,Abilene Cooper,106.5,215.46,115.67,208.65,,Single-ply,SBD,M
Boys,124.74,1,Ed Holguin,Dumas,111.86,272.16,158.76,233.6,664.51,Single-ply,SBD,M
Boys,124.74,2,Justin Yanez,Big Spring,113.04,267.62,154.22,222.26,644.1,Single-ply,SBD,M
Boys,124.74,3,Luis Hernandez,Abilene,122.65,226.8,170.1,226.8,623.69,Single-ply,SBD,M
Boys,124.74,4,Jordan Stevenson,Abilene Cooper,124.47,254.01,117.93,235.87,607.81,Single-ply,SBD,M
Boys,124.74,5,Diego Caballero,Lubbock Monterey,120.66,258.55,147.42,199.58,605.55,Single-ply,SBD,M
Boys,124.74,6,Michael Garcia,Plainview,111.13,238.14,142.88,215.46,596.47,Single-ply,SBD,M
Boys,124.74,7,Leonard Riggs,San Angelo Lake View,118.93,226.8,120.2,240.4,587.4,Single-ply,SBD,M
Boys,124.74,8,Stephan Molinas,Abilene,114.4,247.21,142.88,192.78,582.87,Single-ply,SBD,M
Boys,124.74,9,Pernell Parker,Big Spring,112.22,222.26,131.54,222.26,576.06,Single-ply,SBD,M
Boys,124.74,10,Tyler Tatum,Midland,115.67,217.72,136.08,219.99,573.79,Single-ply,SBD,M
Boys,124.74,DQ,Ben Kittley,Abilene,113.85,,,,,Single-ply,SBD,M
Boys,124.74,DQ,Matt Freeman,Abilene Cooper,112.94,226.8,145.15,181.44,,Single-ply,SBD,M
Boys,124.74,DQ,Avery Rodriguez #4,Odessa Permian,115.94,229.06,120.2,192.78,,Single-ply,SBD,M
Boys,124.74+,1,Jonathan Molina,Big Spring,155.4,319.78,181.44,226.8,728.02,Single-ply,SBD,M
Boys,124.74+,2,Tim Meza,San Angelo Central,131.18,278.96,131.54,204.12,614.62,Single-ply,SBD,M
Boys,124.74+,3,Malachi Nichols,Midland,134.26,213.19,147.42,242.67,603.28,Single-ply,SBD,M
Boys,124.74+,4,Aaron Voss,Odessa Permian,132.54,249.48,133.81,215.46,598.74,Single-ply,SBD,M
Boys,124.74+,5,Devon Davis-Locke,Big Spring,125.55,238.14,154.22,197.31,589.67,Single-ply,SBD,M
Boys,124.74+,6,Anthony Flores,Abilene,129.36,233.6,149.69,204.12,587.4,Single-ply,SBD,M
Boys,124.74+,7,Sheldon Wilson,San Angelo Central,144.7,197.31,142.88,204.12,544.31,Single-ply,SBD,M
Boys,124.74+,8,Anthony Evans,Abilene Cooper,127.37,254.01,142.88,,396.89,Single-ply,SB,M
Boys,124.74+,DQ,Javier Lara,Abilene,134.08,195.04,124.74,181.44,,Single-ply,SBD,M
Boys,124.74+,DQ,Huelon Martinez,Abilene,127.64,204.12,113.4,181.44,,Single-ply,SBD,M
Boys,124.74+,DQ,Daniel Viasana,Midland Lee,142.16,,,,,Single-ply,SB,M
