Name,State,BodyweightKg,WeightClassKg,Sex,Division,AgeRange,Best3BenchKg,TotalKg,Equipment,Event,Place
Donna Colarusso,NY,,47,F,Open,,62.14,62.14,Single-ply,B,1
S. Johnson #34,NY,,63,F,Open,,67.13,67.13,Single-ply,B,1
Helen Sauer,NY,69.85,75,F,Masters,37-44,99.79,99.79,Single-ply,B,1
Lorre Rasmussen,NY,69.85,75,F,Masters,37-44,62.14,62.14,Single-ply,B,2
M. Padgett,NY,69.85,75,F,Novice,,87.09,87.09,Single-ply,B,1
J. Stenson,,,67.5,M,Lifetime,,102.06,102.06,Single-ply,B,1
Sam. Romeo Jr,,,67.5,M,Novice,,104.78,104.78,Single-ply,B,1
S. Rasamny,,,67.5,M,Masters,45-49,87.09,87.09,Single-ply,B,1
Gary Todice,,,75,M,Lifetime,,157.4,157.4,Single-ply,B,1
Tony Sakalis,,,75,M,Collegiate,,144.7,144.7,Single-ply,B,1
A. Cournoyer,,,75,M,Police,,112.49,112.49,Single-ply,B,1
J. Greenberg,,,75,M,Teen,14-15,99.79,99.79,Single-ply,B,3
A. Caramico,,,75,M,Teen,16-17,104.78,104.78,Single-ply,B,2
Tony Sakalis,,,75,M,Teen,18-19,144.7,144.7,Single-ply,B,1
R. Herbst,,,75,M,Submasters,,142.43,142.43,Single-ply,B,1
J. Manfra,,,75,M,Special Olympics,,42.64,42.64,Single-ply,B,1
A. Cournoyer,,,75,M,Masters,65-69,112.49,112.49,Single-ply,B,1
Dennis Cieri,NJ,,82.5,M,Lifetime,,217.27,217.27,Single-ply,B,1
J. Dalzell,,,82.5,M,Lifetime,,182.34,182.34,Single-ply,B,2
D. Lewellyn,,,82.5,M,Lifetime,,182.34,182.34,Single-ply,B,3
J. O'Loughlin,,,82.5,M,Lifetime,,162.39,162.39,Single-ply,B,4
M. Neveu,,,82.5,M,Lifetime,,129.73,129.73,Single-ply,B,5
Dennis Cieri,NJ,,82.5,M,Open,,217.27,217.27,Single-ply,B,1
B. Swanson,,,82.5,M,Open,,179.62,179.62,Single-ply,B,2
M. Myers,,,82.5,M,Police,,154.67,154.67,Single-ply,B,1
D. Reig,,,82.5,M,Teen,18-19,142.43,142.43,Single-ply,B,1
V. Piacente,,,82.5,M,Novice,,129.73,129.73,Single-ply,B,1
R. Schapiro,,,82.5,M,Novice,,109.77,109.77,Single-ply,B,2
J. O'Loughlin,,,82.5,M,Submasters,,161.48,161.48,Single-ply,B,1
C. Tramontana,,,82.5,M,Submasters,,152.41,152.41,Single-ply,B,2
Rick Rasamny,,,82.5,M,Masters,40-44,142.43,142.43,Single-ply,B,3
T. Shaw,,,82.5,M,Masters,45-49,162.39,162.39,Single-ply,B,1
J. Burton,,,82.5,M,Masters,45-49,139.71,139.71,Single-ply,B,4
John Mitsopoulos,,,82.5,M,Masters,50-54,159.66,159.66,Single-ply,B,2
B. Eccleston,,,82.5,M,Masters,55-59,124.74,124.74,Single-ply,B,5
Rudy Zurick,,,90,M,Open,,224.98,224.98,Single-ply,B,1
D. Friedman,,,90,M,Open,,172.37,172.37,Single-ply,B,2
D. Friedman,,,90,M,Lifetime,,172.37,172.37,Single-ply,B,1
J. McPhillyn,,,90,M,Lifetime,,154.67,154.67,Single-ply,B,2
J. Norton,,,90,M,Police,,154.67,154.67,Single-ply,B,1
J. Perrotta,,,90,M,Teen,18-19,127.46,127.46,Single-ply,B,1
T. Ventriglio,,,90,M,Novice,,197.31,197.31,Single-ply,B,1
W. McLaughlin,,,90,M,Masters,45-49,149.69,149.69,Single-ply,B,1
Dennis Ballen,,,90,M,Masters,50-54,142.43,142.43,Single-ply,B,2
Mark Mahew,,,100,M,Open,,227.25,227.25,Single-ply,B,1
Robbie Guyette,,,100,M,Lifetime,,169.64,169.64,Single-ply,B,1
Lou Albano,,,100,M,Military,,147.42,147.42,Single-ply,B,1
Robbie Guyette,,,100,M,Novice,,169.64,169.64,Single-ply,B,1
Robbie Guyette,,,100,M,Submasters,,169.64,169.64,Single-ply,B,1
Rich Rasmussen,,,100,M,Submasters,,134.72,134.72,Single-ply,B,2
Lou Albano,,,100,M,Masters,45-49,147.42,147.42,Single-ply,B,2
Roland Cote,,,100,M,Masters,50-54,187.33,187.33,Single-ply,B,1
Bill Hogan,,,100,M,Masters,55-59,107.05,107.05,Single-ply,B,3
Keith Blackston,,,110,M,Open,,229.97,229.97,Single-ply,B,1
T. Lamoureux,,,110,M,Open,,192.32,192.32,Single-ply,B,2
Keith Blackston,,,110,M,Lifetime,,229.97,229.97,Single-ply,B,1
L. Saviano,,,110,M,Lifetime,,204.57,204.57,Single-ply,B,2
T. Lamoureux,,,110,M,Lifetime,,192.32,192.32,Single-ply,B,3
T. Lamoureux,,,110,M,Novice,,192.32,192.32,Single-ply,B,1
Keith Blackston,,,110,M,Police,,229.97,229.97,Single-ply,B,1
D. Cease,,,110,M,Masters,40-44,179.62,179.62,Single-ply,B,1
Kevin Johnson #1,,,125,M,Open,,237.23,237.23,Single-ply,B,1
F. Borrero,,,125,M,Open,,214.55,214.55,Single-ply,B,2
A. Fornaro,,,125,M,Open,,209.56,209.56,Single-ply,B,3
Rich Scott,,,125,M,Lifetime,,212.28,212.28,Single-ply,B,1
A. Fornaro,,,125,M,Lifetime,,209.56,209.56,Single-ply,B,2
M. Tornol,,,125,M,Submasters,,114.76,114.76,Single-ply,B,1
Fred Dini,,,125,M,Masters,40-44,234.96,234.96,Single-ply,B,1
S. Levy,,,125,M,Masters,60-64,122.47,122.47,Single-ply,B,2
Dan Sorocco,,,125+,M,Open,,184.61,184.61,Single-ply,B,1
Marcel Riddick,,,125+,M,Lifetime,,212.28,212.28,Single-ply,B,1
P. Philson,,,125+,M,Teen,18-19,102.06,102.06,Single-ply,B,1
Dan Sorocco,,,125+,M,Masters,45-49,184.61,184.61,Single-ply,B,1
