Division,WeightClassKg,Place,Name,Team,BodyweightKg,Best3SquatKg,Best3BenchKg,Best3DeadliftKg,TotalKg,Equipment,Event,Sex
Boys,51.71,1,Rey Martinez,Santa Rosa,50.71,124.74,83.91,158.76,367.41,Single-ply,SBD,M
Boys,51.71,2,Mason Williams,Yorktown,51.07,124.74,74.84,149.69,349.27,Single-ply,SBD,M
Boys,51.71,3,Rogelio Hernandez,Ben Bolt-Palito Blanco,50.35,131.54,74.84,140.61,347,Single-ply,SBD,M
Boys,51.71,4,Cole Terry,Skidmore-Tynan,49.99,129.27,77.11,138.35,344.73,Single-ply,SBD,M
Boys,51.71,5,AJ Perez,Santa Gertrudis Academy,51.62,122.47,70.31,136.08,328.85,Single-ply,SBD,M
Boys,51.71,6,Tyrese Perkins,Cotulla,51.26,117.93,63.5,136.08,317.51,Single-ply,SBD,M
Boys,51.71,7,Vince Ochoa,Dilley,50.8,108.86,70.31,136.08,315.25,Single-ply,SBD,M
Boys,51.71,8,Jackson Littles,Edinburg Idea College Prep,51.07,111.13,54.43,122.47,288.03,Single-ply,SBD,M
Boys,51.71,9,Matthew Morales,Edinburg Quest College Prep,48.08,97.52,61.23,113.4,272.16,Single-ply,SBD,M
Boys,51.71,DQ,Caleb Almond,San Antonio Cole,50.26,,,,,Single-ply,SBD,M
Boys,51.71,DQ,Jimmy Miller,George West,50.44,142.88,,,,Single-ply,SBD,M
Boys,51.71,DQ,Lucas Lara,Mathis,51.35,,,,,Single-ply,SBD,M
Boys,55.79,1,Randy Soliz,Hebbronville,55.25,195.04,117.93,222.26,535.24,Single-ply,SBD,M
Boys,55.79,2,Anthony Perez,Ben Bolt-Palito Blanco,53.52,154.22,97.52,181.44,433.18,Single-ply,SBD,M
Boys,55.79,3,Marcos Chavez,Lyford,55.34,136.08,88.45,185.97,410.5,Single-ply,SBD,M
Boys,55.79,4,Kyle Bailey,Karnes City,55.25,156.49,95.25,151.95,403.7,Single-ply,SBD,M
Boys,55.79,5,Mason Lavar,Marion,55.79,140.61,92.99,158.76,392.36,Single-ply,SBD,M
Boys,55.79,6,Jason Flores,Cotulla,55.79,149.69,77.11,161.03,387.82,Single-ply,SBD,M
Boys,55.79,7,Carlos Madrigal,Edinburg Quest College Prep,55.34,142.88,99.79,142.88,385.55,Single-ply,SBD,M
Boys,55.79,8,Joey Garcia,Marion,54.34,115.67,70.31,156.49,342.46,Single-ply,SBD,M
Boys,55.79,9,Niko Munoz,Falfurrias,54.43,124.74,79.38,131.54,335.66,Single-ply,SBD,M
Boys,55.79,10,Tyler Harris,Skidmore-Tynan,54.79,108.86,68.04,149.69,326.59,Single-ply,SBD,M
Boys,55.79,DQ,Kolbe Kutac,Schulenburg,55.7,,,,,Single-ply,SBD,M
Boys,55.79,DQ,Dominic Mercado,San Antonio Cole,55.79,,,,,Single-ply,SBD,M
Boys,59.87,1,Anthony Perez,San Antonio Cole,59.78,215.46,113.4,215.46,544.31,Single-ply,SBD,M
Boys,59.87,2,Juan Rojas,La Pryor,57.61,197.31,122.47,179.17,498.95,Single-ply,SBD,M
Boys,59.87,3,Oziel Padilla,Natalia,59.6,197.31,108.86,192.78,498.95,Single-ply,SBD,M
Boys,59.87,4,Marcos Lara,Mathis,59.33,161.03,122.47,204.12,487.61,Single-ply,SBD,M
Boys,59.87,5,Lucio Davila,Altair Rice,59.69,167.83,83.91,183.7,435.45,Single-ply,SBD,M
Boys,59.87,6,Sam Martinez #2,Bishop,59.87,147.42,102.06,183.7,433.18,Single-ply,SBD,M
Boys,59.87,7,Jose Maldonado,Falfurrias,59.15,151.95,106.59,167.83,426.38,Single-ply,SBD,M
Boys,59.87,8,Samuel Moczygemba,Poth,59.87,156.49,104.33,149.69,410.5,Single-ply,SBD,M
Boys,59.87,9,Gerardo Jimenez,Edinburg Quest College Prep,58.88,136.08,97.52,158.76,392.36,Single-ply,SBD,M
Boys,59.87,10,Zachary Baker,Hallettsville,59.6,156.49,79.38,156.49,392.36,Single-ply,SBD,M
Boys,59.87,DQ,Richard Saenz,Hebbronville,58.79,195.04,108.86,,,Single-ply,SBD,M
Boys,59.87,DQ,Matthew Gauthier,Marion,59.69,154.22,102.06,,,Single-ply,SBD,M
Boys,67.13,1,Estevan Galvan,Freer,65.23,206.38,124.74,242.67,573.79,Single-ply,SBD,M
Boys,67.13,2,Kristopher Imhof,San Antonio Cole,66.13,213.19,104.33,210.92,528.44,Single-ply,SBD,M
Boys,67.13,3,Nathan Besch,Weimar,66.77,188.24,102.06,224.53,514.83,Single-ply,SBD,M
Boys,67.13,4,Ramiro Gonzalez,Falfurrias,65.59,192.78,117.93,201.85,512.56,Single-ply,SBD,M
Boys,67.13,5,Arturo Reyna,Bishop,66.59,181.44,113.4,181.44,476.27,Single-ply,SBD,M
Boys,67.13,6,Nathaniel McRae,Hebbronville,67.04,167.83,90.72,204.12,462.66,Single-ply,SBD,M
Boys,67.13,7,Jon Daigle,Marion,66.77,163.29,106.59,165.56,435.45,Single-ply,SBD,M
Boys,67.13,8,Michael Rodriguez #6,Stockdale,66.22,167.83,92.99,172.37,433.18,Single-ply,SBD,M
Boys,67.13,DQ,DJ Martinez,Dilley,62.78,,,,,Single-ply,SBD,M
Boys,67.13,DQ,Nick Rodriguez #1,Dilley,65.59,158.76,,,,Single-ply,SBD,M
Boys,67.13,DQ,Raul Garcia,Cotulla,65.32,,,,,Single-ply,SBD,M
Boys,74.84,1,Javier Rodriguez,San Diego,74.03,256.28,161.03,219.99,637.3,Single-ply,SBD,M
Boys,74.84,2,Leonel Salinas,San Diego,73.75,222.26,136.08,226.8,585.13,Single-ply,SBD,M
Boys,74.84,3,Dante Pizana,Odem,74.39,190.51,138.35,195.04,523.9,Single-ply,SBD,M
Boys,74.84,4,Mike Adameit,Lyford,74.03,195.04,120.2,206.38,521.63,Single-ply,SBD,M
Boys,74.84,5,Frank Moreno,Lyford,74.75,181.44,120.2,215.46,517.1,Single-ply,SBD,M
Boys,74.84,6,Conner Bowers,Bishop,74.39,183.7,122.47,206.38,512.56,Single-ply,SBD,M
Boys,74.84,7,Shehryar Khursheed,Edinburg Quest College Prep,68.86,170.1,113.4,215.46,498.95,Single-ply,SBD,M
Boys,74.84,8,Gilibaldo Garcia,San Antonio Brooks Academy,71.58,176.9,99.79,206.38,483.08,Single-ply,SBD,M
Boys,74.84,9,Ramiro Flores,Brackettville Brackett,73.03,183.7,111.13,183.7,478.54,Single-ply,SBD,M
Boys,74.84,10,Arin Saenz,Freer,70.85,170.1,102.06,204.12,476.27,Single-ply,SBD,M
Boys,74.84,DQ,Eddie Lopez,Universal City Randolph,72.39,,,,,Single-ply,SBD,M
Boys,74.84,DQ,Destin Chapa,Mathis,74.48,,,,,Single-ply,SBD,M
Boys,82.1,1,Lane McClelland,George West,80.74,235.87,149.69,242.67,628.23,Single-ply,SBD,M
Boys,82.1,2,Isaiah Herring,Hallettsville,78.38,238.14,136.08,238.14,612.35,Single-ply,SBD,M
Boys,82.1,3,Anthony McGuill,Refugio,80.2,231.33,131.54,249.48,612.35,Single-ply,SBD,M
Boys,82.1,4,Brandon Munoz,George West,81.37,235.87,136.08,240.4,612.35,Single-ply,SBD,M
Boys,82.1,5,Alex Paredes,Natalia,81.37,260.82,113.4,217.72,591.94,Single-ply,SBD,M
Boys,82.1,6,Joshua Olivarez,Falfurrias,77.29,213.19,124.74,240.4,578.33,Single-ply,SBD,M
Boys,82.1,7,Nate Smith,George West,80.92,229.06,113.4,226.8,569.26,Single-ply,SBD,M
Boys,82.1,8,Mitchell Rees,Karnes City,79.65,231.33,113.4,217.72,562.45,Single-ply,SBD,M
Boys,82.1,9,Andres Moncada,Karnes City,80.1,213.19,113.4,229.06,555.65,Single-ply,SBD,M
Boys,82.1,10,Dylan Tomek,Hallettsville,80.65,199.58,133.81,217.72,551.11,Single-ply,SBD,M
Boys,82.1,11,Elijah Holifield,Skidmore-Tynan,79.83,199.58,117.93,231.33,548.85,Single-ply,SBD,M
Boys,82.1,12,Victor Moreno,Hebbronville,81.47,213.19,127.01,204.12,544.31,Single-ply,SBD,M
Boys,82.1,DQ,Hunter Adkins,Altair Rice,80.01,213.19,,,,Single-ply,SBD,M
Boys,89.81,1,Arnold Sauceda,Hebbronville,87.27,265.35,190.51,254.01,709.87,Single-ply,SBD,M
Boys,89.81,2,Karl Gibson II,Mathis,88.27,260.82,161.03,249.48,671.32,Single-ply,SBD,M
Boys,89.81,3,Nathon Cantu,San Antonio Brooks Academy,86.18,249.48,147.42,219.99,616.89,Single-ply,SBD,M
Boys,89.81,4,Trace McAfee,Hallettsville,87.54,226.8,145.15,222.26,594.21,Single-ply,SBD,M
Boys,89.81,5,Paul Torres,Aransas Pass,89.81,215.46,115.67,254.01,585.13,Single-ply,SBD,M
Boys,89.81,6,Rolando Rivas,Aransas Pass,87.91,240.4,136.08,201.85,578.33,Single-ply,SBD,M
Boys,89.81,7,Anthony Aldaco,Brackettville Brackett,84.73,247.21,111.13,201.85,560.19,Single-ply,SBD,M
Boys,89.81,8,Allan Medrano,Bishop,85.55,208.65,127.01,195.04,530.7,Single-ply,SBD,M
Boys,89.81,9,Jovany Mendez,Lyford,88.72,199.58,129.27,185.97,514.83,Single-ply,SBD,M
Boys,89.81,DQ,Alec Lara,Mathis,89.09,235.87,,,,Single-ply,SBD,M
Boys,89.81,DQ,Josh Duran,Marion,89.09,195.04,,,,Single-ply,SBD,M
Boys,99.79,1,Jose Moreno,San Diego,98.79,317.51,158.76,310.71,786.98,Single-ply,SBD,M
Boys,99.79,2,Kaden Hardt,Hallettsville,95.62,272.16,181.44,238.14,691.73,Single-ply,SBD,M
Boys,99.79,3,Jose Orellana,La Pryor,93.35,242.67,165.56,249.48,657.71,Single-ply,SBD,M
Boys,99.79,4,Andrew Tavera,Altair Rice,98.52,263.08,136.08,247.21,646.37,Single-ply,SBD,M
Boys,99.79,5,Ray Saenz,Bishop,91.44,238.14,136.08,240.4,614.62,Single-ply,SBD,M
Boys,99.79,6,Patrick Zaiontz,San Antonio Brooks Academy,96.98,213.19,176.9,224.53,614.62,Single-ply,SBD,M
Boys,99.79,7,Tony Rivas,Brackettville Brackett,96.98,249.48,115.67,238.14,603.28,Single-ply,SBD,M
Boys,99.79,8,Jaime Pedraza,Mathis,98.7,215.46,158.76,217.72,591.94,Single-ply,SBD,M
Boys,99.79,9,Michael Salaiz,San Diego,96.71,240.4,111.13,222.26,573.79,Single-ply,SBD,M
Boys,99.79,10,Cole Doerr,Marion,93.62,195.04,129.27,210.92,535.24,Single-ply,SBD,M
Boys,99.79,11,Elias Cantu,Hebbronville,93.62,190.51,122.47,210.92,523.9,Single-ply,SBD,M
Boys,109.77,1,Jacob Caldera,San Antonio Cole,105.69,278.96,170.1,235.87,684.92,Single-ply,SBD,M
Boys,109.77,2,Ruben Casas,Falfurrias,105.69,265.35,167.83,229.06,662.24,Single-ply,SBD,M
Boys,109.77,3,Daniel Vela,Falfurrias,108.95,254.01,133.81,231.33,619.15,Single-ply,SBD,M
Boys,109.77,4,Brennan Schimcek,Hallettsville,108.86,231.33,158.76,204.12,594.21,Single-ply,SBD,M
Boys,109.77,5,Estevan Esqueda,Odem,108.23,219.99,156.49,204.12,580.6,Single-ply,SBD,M
Boys,109.77,6,Rudy Vasquez,Kenedy,107.23,213.19,151.95,213.19,578.33,Single-ply,SBD,M
Boys,109.77,7,Oscar Ramirez,Natalia,107.32,222.26,147.42,206.38,576.06,Single-ply,SBD,M
Boys,109.77,8,Tristan Frerich,Odem,108.86,219.99,142.88,208.65,571.53,Single-ply,SBD,M
Boys,109.77,9,Oliver Shorter,Altair Rice,104.05,222.26,138.35,204.12,564.72,Single-ply,SBD,M
Boys,109.77,10,Will Dowell,Hallettsville,105.87,215.46,131.54,188.24,535.24,Single-ply,SBD,M
Boys,109.77,DQ,Jose Marquez,Hebbronville,109.04,258.55,,,,Single-ply,SBD,M
Boys,109.77,DQ,Jose Chavera,Banquete,106.14,,,,,Single-ply,SBD,M
Boys,124.74,1,Javier Henderson,Mathis,119.93,362.87,188.24,242.67,793.79,Single-ply,SBD,M
Boys,124.74,2,Dante Medina,Nixon Smiley,120.2,297.1,190.51,222.26,709.87,Single-ply,SBD,M
Boys,124.74,3,Diego Fonseca,Mathis,113.85,265.35,163.29,247.21,675.85,Single-ply,SBD,M
Boys,124.74,4,Trace Mascorro,Refugio,115.03,233.6,170.1,244.94,648.64,Single-ply,SBD,M
Boys,124.74,5,Joshua Leal,Karnes City,119.57,242.67,158.76,244.94,646.37,Single-ply,SBD,M
Boys,124.74,6,Anthony Cantu,Mathis,114.94,272.16,170.1,195.04,637.3,Single-ply,SBD,M
Boys,124.74,7,Luis Sanchez,Three Rivers,118.93,254.01,145.15,226.8,625.96,Single-ply,SBD,M
Boys,124.74,8,Robert De Leon,Lyford,114.03,254.01,129.27,231.33,614.62,Single-ply,SBD,M
Boys,124.74,9,Cody Kuhl,Universal City Randolph,112.31,231.33,120.2,242.67,594.21,Single-ply,SBD,M
Boys,124.74,DQ,Jaime Rosas,Falfurrias,116.66,,,,,Single-ply,SBD,M
Boys,124.74,DQ,Santiago Leija,Natalia,116.57,272.16,154.22,,,Single-ply,SBD,M
Boys,124.74,DQ,Victor Cruz,Natalia,119.29,,,,,Single-ply,SBD,M
Boys,124.74+,1,Ray Navarro,Natalia,135.26,340.19,183.7,292.57,816.47,Single-ply,SBD,M
Boys,124.74+,2,Nicholas Zapata,Bishop,131.63,317.51,199.58,260.82,777.91,Single-ply,SBD,M
Boys,124.74+,3,James Nino,Weimar,143.52,281.23,181.44,272.16,734.82,Single-ply,SBD,M
Boys,124.74+,4,Michael Diaz,Stockdale,135.08,285.76,195.04,251.74,732.55,Single-ply,SBD,M
Boys,124.74+,5,James Cooksey,Kenedy,132.9,292.57,176.9,256.28,725.75,Single-ply,SBD,M
Boys,124.74+,6,Viviano Rodriguez,Cotulla,134.44,290.3,147.42,226.8,664.51,Single-ply,SBD,M
Boys,124.74+,7,Diego Garcia,Stockdale,139.71,285.76,142.88,233.6,662.24,Single-ply,SBD,M
Boys,124.74+,8,Martin Hidrogo,Stockdale,129.27,260.82,145.15,238.14,644.1,Single-ply,SBD,M
Boys,124.74+,9,Nathan Pearson,Brackettville Brackett,126.37,249.48,147.42,238.14,635.03,Single-ply,SBD,M
Boys,124.74+,10,Jonah Masters,San Antonio Cole,138.53,249.48,127.01,249.48,625.96,Single-ply,SBD,M
Boys,124.74+,11,Mikey Chapa,Karnes City,143.79,215.46,127.01,201.85,544.31,Single-ply,SBD,M
Boys,124.74+,DQ,Justin Garcia,Lyford,130.54,,,,,Single-ply,SBD,M
Boys,124.74+,DQ,Isaiah Atseriak,San Antonio Cole,131.54,210.92,97.52,,,Single-ply,SBD,M
