Place,Sex,Name,CyrillicName,BodyweightKg,Squat1Kg,Squat2Kg,Squat3Kg,Best3SquatKg,Squat4Kg,Bench1Kg,Bench2Kg,Bench3Kg,Best3BenchKg,Bench4Kg,Deadlift1Kg,Deadlift2Kg,Deadlift3Kg,Best3DeadliftKg,Deadlift4Kg,TotalKg,WeightClassKg,Event,Equipment,Tested,Division,Age,BirthDate
1,F,Anastasiya Glebova,Анастасия Глебова,46,80,87.5,92.5,92.5,,40,45,-47.5,45,,90,97.5,105,105,,242.5,48,SBD,Raw,No,Open,33,1987-10-26
1,F,Ekaterina Chekalina,Екатерина Чекалина,53.3,60,65,70,70,,47.5,-52.5,-52.5,47.5,,70,80,90,90,,207.5,56,SBD,Raw,No,Open,,1984-11-20
2,F,Svetlana Ivanova,Светлана Иванова,55.8,60,65,67.5,67.5,,35,-40,-42.5,35,,60,70,-75,70,,172.5,56,SBD,Raw,No,Open,36,1985-05-22
1,F,Irina Anisimova,Ирина Анисимова,54.8,60,67.5,75,75,,45,-47.5,-47.5,45,,60,70,75,75,,195,56,SBD,Raw,No,Masters 40-44,44,1976-12-16
1,F,Marina Maltseva,Марина Мальцева,58.7,100,107.5,115,115,,55,-62.5,-62.5,55,,110,122.5,132.5,132.5,,302.5,60,SBD,Raw,No,Open,34,1987-02-24
2,F,Polina Lezhneva,Полина Лежнева,58.6,100,107.5,-112.5,107.5,,50,-55,-55,50,,100,107.5,115,115,,272.5,60,SBD,Raw,No,Open,37,1983-12-22
3,F,Darya Aburova,Дарья Абурова,58.2,-85,85,95,95,,-57.5,57.5,-62.5,57.5,,90,97.5,105,105,,257.5,60,SBD,Raw,No,Open,36,1984-12-18
1,M,Pyotr Sitnikov,Пётр Ситников,78.4,-160,160,170,170,,130,140,-145,140,,170,180,190,190,,500,82.5,SBD,Raw,No,Open,44,1976-09-24
1,M,Roman Vekerle,Роман Векерле,89.3,130,140,155,155,,95,100,-102.5,100,,150,165,-180,165,,420,90,SBD,Raw,No,Teen 13-15,15,2005-06-13
1,M,Ilya Trofimov,Илья Трофимов,87.9,125,135,145,145,,100,-105,-105,100,,152.5,162.5,-170,162.5,,407.5,90,SBD,Raw,No,Open,,1980-12-31
1,M,Ivan Markov,Иван Марков,97.8,190,200,210,210,,160,170,175,175,,240,250,260,260,,645,100,SBD,Raw,No,Open,29,1992-03-05
2,M,Aleksey Maksonov,Алексей Максонов,96.3,200,212.5,220,220,,172.5,177.5,-182.5,177.5,,220,-235,-235,220,,617.5,100,SBD,Raw,No,Open,22,1999-04-22
1,M,Sergey Nikitchuk,Сергей Никитчук,119.9,250,260,-275,260,,170,175,180,180,,300,320,-330,320,,760,125,SBD,Raw,No,Open,41,1979-11-18
1,M,Vasiliy Vishnevskiy,Василий Вишневский,136.5,205,220,230,230,,155,165,172.5,172.5,,260,285,,285,,687.5,140,SBD,Raw,No,Open,28,1992-09-18
1,F,Ekaterina Chekalina,Екатерина Чекалина,53.3,,,,,,47.5,-52.5,-52.5,47.5,,70,80,90,90,,137.5,56,BD,Raw,No,Open,,1984-11-20
1,F,Marina Maltseva,Марина Мальцева,58.7,,,,,,55,-62.5,-62.5,55,,110,122.5,132.5,132.5,,187.5,60,BD,Raw,No,Open,34,1987-02-24
2,F,Darya Aburova,Дарья Абурова,58.2,,,,,,-57.5,57.5,-62.5,57.5,,90,97.5,105,105,,162.5,60,BD,Raw,No,Open,36,1984-12-18
1,M,Denis Gertel,Денис Гертель,73.9,,,,,,110,115,120,120,,140,150,162.5,162.5,,282.5,75,BD,Raw,No,Open,38,1982-10-09
1,M,Evgeniy Kostin,Евгений Костин,80,,,,,,105,110,117.5,117.5,,165,175,187.5,187.5,,305,82.5,BD,Raw,No,Open,28,1992-09-27
1,M,Roman Vekerle,Роман Векерле,89.3,,,,,,95,100,-102.5,100,,150,165,-180,165,,265,90,BD,Raw,No,Teen 13-15,15,2005-06-13
1,M,Valentin Radzhabov,Валентин Раджабов,97.3,,,,,,130,140,150,150,,190,200,-210,200,,350,100,BD,Raw,No,Open,27,1993-07-27
1,M,Sergey Nikitchuk,Сергей Никитчук,119.9,,,,,,170,175,180,180,,300,320,-330,320,,500,125,BD,Raw,No,Open,41,1979-11-18
1,F,Ulyana Boyarintseva,Ульяна Бояринцева,54.4,,,,,,50,-52.5,-52.5,50,,,,,,,50,56,B,Raw,No,Open,21,1999-12-23
2,F,Ekaterina Chekalina,Екатерина Чекалина,53.3,,,,,,47.5,-52.5,-52.5,47.5,,,,,,,47.5,56,B,Raw,No,Open,,1984-11-20
1,F,Darya Aburova,Дарья Абурова,58.2,,,,,,-57.5,57.5,-62.5,57.5,,,,,,,57.5,60,B,Raw,No,Open,36,1984-12-18
2,F,Marina Maltseva,Марина Мальцева,58.7,,,,,,55,-62.5,-62.5,55,,,,,,,55,60,B,Raw,No,Open,34,1987-02-24
1,F,Margarita Kalugina,Маргарита Калугина,64.1,,,,,,52.5,55,-57.5,55,,,,,,,55,67.5,B,Raw,No,Open,34,1987-05-25
1,M,Ilya Tomilov,Илья Томилов,65.4,,,,,,117.5,122.5,-127.5,122.5,,,,,,,122.5,67.5,B,Raw,No,Open,32,1989-05-25
2,M,Aleksandr Kazakov,Александр Казаков,65,,,,,,100,105,-107.5,105,,,,,,,105,67.5,B,Raw,No,Open,32,1989-03-06
1,M,Maksim Fuks,Максим Фукс,71.5,,,,,,102.5,105,-107.5,105,,,,,,,105,75,B,Raw,No,Teen 18-19,18,2003-04-18
2,M,Artyom Fuks,Артём Фукс,73,,,,,,95,-97.5,97.5,97.5,,,,,,,97.5,75,B,Raw,No,Teen 13-15,15,2006-04-18
1,M,Anton Pozdeev,Антон Поздеев,74.4,,,,,,125,130,-135,130,,,,,,,130,75,B,Raw,No,Open,33,1987-10-17
2,M,Denis Gertel,Денис Гертель,73.9,,,,,,110,115,120,120,,,,,,,120,75,B,Raw,No,Open,38,1982-10-09
3,M,Anton Chicherov,Антон Чичеров,74.5,,,,,,-100,100,-105,100,,,,,,,100,75,B,Raw,No,Open,32,1988-11-01
1,M,Vladimir Nuzhnyy,Владимир Нужный,74,,,,,,75,80,-85,80,,,,,,,80,75,B,Raw,No,Masters 65-69,67,1953-07-11
1,M,Evgeniy Vlasov,Евгений Власов,81.1,,,,,,142.5,147.5,150,150,,,,,,,150,82.5,B,Raw,No,Open,45,1975-06-17
2,M,Oleg Plyusnin,Олег Плюснин,76.8,,,,,,137.5,140,145,145,,,,,,,145,82.5,B,Raw,No,Open,58,1963-03-22
3,M,Vladimir Zavyalov #2,Владимир Завялов,80.5,,,,,,130,-142.5,-142.5,130,,,,,,,130,82.5,B,Raw,No,Open,42,1979-05-19
4,M,Evgeniy Kostin,Евгений Костин,80,,,,,,105,110,117.5,117.5,,,,,,,117.5,82.5,B,Raw,No,Open,28,1992-09-27
DQ,M,Viktor Furazhkin,Виктор Фуражкин,78.7,,,,,,-160,-160,-165,,,,,,,,,82.5,B,Raw,No,Open,52,1969-01-20
DQ,M,Artem Chabrovskiy,Артем Чабровский,77.9,,,,,,-120,-120,,,,,,,,,,82.5,B,Raw,No,Masters 40-44,41,1979-11-06
1,M,Oleg Plyusnin,Олег Плюснин,76.8,,,,,,137.5,140,145,145,,,,,,,145,82.5,B,Raw,No,Masters 55-59,58,1963-03-22
1,M,Roman Vekerle,Роман Векерле,89.3,,,,,,95,100,-102.5,100,,,,,,,100,90,B,Raw,No,Teen 13-15,15,2005-06-13
1,M,Igor Kislyakov,Игорь Кисляков,88.4,,,,,,165,175,185,185,,,,,,,185,90,B,Raw,No,Open,,1985-09-30
2,M,Aleksandr Sapetko,Александр Сапетко,86.1,,,,,,145,155,160,160,,,,,,,160,90,B,Raw,No,Open,43,1977-08-20
3,M,Aleksandr Grechishnikov,Александр Гречишников,89.9,,,,,,150,155,160,160,,,,,,,160,90,B,Raw,No,Open,34,1986-09-20
4,M,Aleksey Yarkov,Алексей Ярков,88.3,,,,,,-145,-152.5,152.5,152.5,,,,,,,152.5,90,B,Raw,No,Open,25,1996-01-06
5,M,Vladimir Manilo,Владимир Манило,85,,,,,,140,152.5,-155,152.5,,,,,,,152.5,90,B,Raw,No,Open,33,1987-10-01
6,M,Roman Mikhaylenko,Роман Михайленко,84.9,,,,,,125,-130,130,130,,,,,,,130,90,B,Raw,No,Open,24,1997-01-22
1,M,Aleksandr Sapetko,Александр Сапетко,86.1,,,,,,145,155,160,160,,,,,,,160,90,B,Raw,No,Masters 40-44,43,1977-08-20
1,M,Roman Yudin,Роман Юдин,93.8,,,,,,170,180,185,185,,,,,,,185,100,B,Raw,No,Open,26,1995-03-05
2,M,Aleksandr Luzyanin,Александр Лузянин,96.5,,,,,,150,165,170,170,,,,,,,170,100,B,Raw,No,Open,33,1988-04-08
3,M,Taras Torlopov,Тарас Торлопов,91.4,,,,,,150,160,-170,160,,,,,,,160,100,B,Raw,No,Open,26,1995-01-13
1,M,Aleksandr Pokotilo,Александр Покотило,95,,,,,,130,140,142.5,142.5,,,,,,,142.5,100,B,Raw,No,Masters 40-44,,1978-04-14
1,M,Matvey Terletskiy,Матвей Терлецкий,106,,,,,,202.5,207.5,212.5,212.5,,,,,,,212.5,110,B,Raw,No,Open,29,1992-04-22
2,M,Aleksandr Pavlov,Александр Павлов,107.3,,,,,,150,-160,162.5,162.5,,,,,,,162.5,110,B,Raw,No,Open,41,1979-08-07
3,M,Igor Startsev,Игорь Старцев,108.9,,,,,,155,-165,-170,155,,,,,,,155,110,B,Raw,No,Open,33,1988-03-21
4,M,Ruslan Salikhov,Руслан Салихов,105.8,,,,,,150,-155,-155,150,,,,,,,150,110,B,Raw,No,Open,32,1988-09-07
1,M,Aleksandr Reshetnyak,Александр Решетняк,118.5,,,,,,190,200,205,205,,,,,,,205,125,B,Raw,No,Open,,1976-04-01
2,M,Sergey Nikitchuk,Сергей Никитчук,119.9,,,,,,170,175,180,180,,,,,,,180,125,B,Raw,No,Open,41,1979-11-18
3,M,Nikita Chetverikov,Никита Четвериков,116.3,,,,,,150,160,-165,160,,,,,,,160,125,B,Raw,No,Open,,1998-11-03
4,M,Maksim Shuchalin,Максим Шучалин,115.5,,,,,,125,130,135,135,,,,,,,135,125,B,Raw,No,Open,38,1983-05-15
1,F,Viktoriya Grichak,Виктория Гричак,48,,,,,,,,,,,70,75,-77.5,75,,75,48,D,Raw,No,Open,37,1984-03-12
1,F,Ekaterina Chekalina,Екатерина Чекалина,53.3,,,,,,,,,,,70,80,90,90,,90,56,D,Raw,No,Open,,1984-11-20
1,F,Marina Maltseva,Марина Мальцева,58.7,,,,,,,,,,,110,122.5,132.5,132.5,,132.5,60,D,Raw,No,Open,34,1987-02-24
2,F,Darya Aburova,Дарья Абурова,58.2,,,,,,,,,,,90,97.5,105,105,,105,60,D,Raw,No,Open,36,1984-12-18
1,M,Ivan Storozhuk,Иван Сторожук,59,,,,,,,,,,,120,140,-150,140,,140,60,D,Raw,No,Teen 16-17,17,2004-02-03
1,M,Denis Gertel,Денис Гертель,73.9,,,,,,,,,,,140,150,162.5,162.5,,162.5,75,D,Raw,No,Open,38,1982-10-09
1,M,Riad Kaud,,81.3,,,,,,,,,,,230,-240,240,240,,240,82.5,D,Raw,No,Juniors 20-23,22,1999-02-13
1,M,Riad Kaud,,81.3,,,,,,,,,,,230,-240,240,240,,240,82.5,D,Raw,No,Open,22,1999-02-13
2,M,Pyotr Sitnikov,Пётр Ситников,78.4,,,,,,,,,,,170,180,190,190,,190,82.5,D,Raw,No,Open,44,1976-09-24
3,M,Maksim Striyskiy,Максим Стрийский,82.5,,,,,,,,,,,170,-180,190,190,,190,82.5,D,Raw,No,Open,27,1994-02-24
4,M,Evgeniy Kostin,Евгений Костин,80,,,,,,,,,,,165,175,187.5,187.5,,187.5,82.5,D,Raw,No,Open,28,1992-09-27
1,M,George Masaad,,83.8,,,,,,,,,,,180,-190,-200,180,,180,90,D,Raw,No,Juniors 20-23,22,1999-03-10
1,M,Sergey Makarenko,Сергей Макаренко,85.8,,,,,,,,,,,-160,160,175,175,,175,90,D,Raw,No,Open,28,1993-03-26
1,M,Ivan Markov,Иван Марков,97.8,,,,,,,,,,,240,250,260,260,,260,100,D,Raw,No,Open,29,1992-03-05
1,M,Sergey Nikitchuk,Сергей Никитчук,119.9,,,,,,,,,,,300,320,-330,320,,320,125,D,Raw,No,Open,41,1979-11-18
